Name               Stmts   Miss Branch BrPart  Cover   Missing
--------------------------------------------------------------
Diplomacy.py         186     23    112      6    86%   41->40, 100->99, 104->103, 130-140, 157, 160-172
TestDiplomacy.py     112      0      0      0   100%
--------------------------------------------------------------
TOTAL                298     23    112      6    90%
