........
----------------------------------------------------------------------
Ran 8 tests in 0.000s

OK
Name               Stmts   Miss Branch BrPart  Cover   Missing
--------------------------------------------------------------
Diplomacy.py          71      0     46      1    99%   48->44
TestDiplomacy.py      42      0      0      0   100%
--------------------------------------------------------------
TOTAL                113      0     46      1    99%
